{
  "data": [
    {
      "id": 35,
      "name": "Sagaform",
      "page_title": "",
      "meta_keywords": [
        ""
      ],
      "meta_description": "",
      "image_url": "",
      "search_keywords": "",
      "custom_url": {
        "url": "\/brands\/sagaform\/",
        "is_customized": true
      }
    }
  ],
  "meta": {
    "pagination": {
      "total": 17,
      "count": 1,
      "per_page": 1,
      "current_page": 1,
      "total_pages": 17,
      "links": {
        "next": "?limit=1&page=2",
        "current": "?limit=1&page=1"
      }
    }
  }
}